dss-powersim
…
We need to create a table listing each song \(i\), which category it is in
(rock or pop), and its random effect \(O_{0i}\). The latter is sampled
from a univariate normal distribution using the function rnorm().

# simulate a sample of songs
songs <- tibble(
  song_id = seq_len(n_pop + n_rock),
  category = rep(c("pop", "rock"), c(n_pop, n_rock)),
  genre_i = rep(c(0, 1), c(n_pop, n_rock)),
  O_0i = rnorm(n = n_pop + n_rock, mean = 0, sd = omega_0)
)

print(songs, n=10)

## # A tibble: 30 × 4
##    song_id category genre_i    O_0i
##      <int> <chr>      <dbl>   <dbl>
##  1       1 pop            0  0.0930
##  2       2 pop            0 -0.960 
##  3       3 pop            0 -2.40  
##  4       4 pop            0 -5.11  
##  5       5 pop            0  3.64  
##  6       6 pop            0  1.37  
##  7       7 pop            0 -8.10  
##  8       8 pop            0 -0.382 
##  9       9 pop            0 -3.41  
## 10      10 pop            0  5.14  
## # ℹ 20 more rows
…
# sample from a multivariate normal distribution
subjects <- faux::rnorm_multi(
    n = n_subj,
    mu = 0, # means for random effects are always 0
    sd = c(tau_0, tau_1), # set SDs
    r = rho, # set correlation
    varnames = c("T_0j", "T_1j")
  ) |>
  mutate(subj_id = seq_len(n_subj)) |> # add subject IDs
  as_tibble()

print(subjects, n=10)

## # A tibble: 25 × 3
##       T_0j   T_1j subj_id
##      <dbl>  <dbl>   <int>
##  1  -2.33   0.169       1
##  2   0.396  1.96        2
##  3  -8.48   0.716       3
##  4 -13.8   -5.05        4
##  5  -3.51  -1.16        5
##  6  -2.12  -4.99        6
##  7   9.44   7.00        7
##  8   3.96   3.05        8
##  9 -11.5   -3.29        9
## 10   4.76  -5.68       10
## # ℹ 15 more rows
…
Since all subjects rate all songs (i.e., the design is fully crossed) we
can set up a table of trials by including every possible combination of
the rows in the subjects and songs tables. Each trial has random
error associated with it, reflecting fluctuations in trial-by-trial
ratings due to unknown factors. We simulate this by sampling values from
a univariate normal distribution with a mean of 0 and a standard
deviation of sigma.

# cross subject and song IDs; add an error term
trials <- crossing(subjects, songs) |>
  mutate(e_ij = rnorm(n(), mean = 0, sd = sigma))

print(trials, n=10)

## # A tibble: 750 × 8
##     T_0j   T_1j subj_id song_id category genre_i    O_0i  e_ij
##    <dbl>  <dbl>   <int>   <int> <chr>      <dbl>   <dbl> <dbl>
##  1 -14.2 -0.797      11       1 pop            0  0.0930 -2.07
##  2 -14.2 -0.797      11       2 pop            0 -0.960   5.46
##  3 -14.2 -0.797      11       3 pop            0 -2.40    5.79
##  4 -14.2 -0.797      11       4 pop            0 -5.11   -2.02
##  5 -14.2 -0.797      11       5 pop            0  3.64   16.5 
##  6 -14.2 -0.797      11       6 pop            0  1.37    3.92
##  7 -14.2 -0.797      11       7 pop            0 -8.10   11.9 
##  8 -14.2 -0.797      11       8 pop            0 -0.382  -6.91
##  9 -14.2 -0.797      11       9 pop            0 -3.41   -6.68
## 10 -14.2 -0.797      11      10 pop            0  5.14   -2.11
## # ℹ 740 more rows

4.2.3.5 Calculate response values

With this resulting trials table, in combination with the constants
beta_0 and beta_1, we have the full set of values that we need to
compute the response variable liking_ij according the linear model we
defined previously (see Power of What?).

dat_sim <- trials |>
  mutate(liking_ij = beta_0 + T_0j + O_0i + (beta_1 + T_1j) * genre_i + e_ij) %>%
  select(subj_id, song_id, category, genre_i, liking_ij)

print(dat_sim, n=10)

## # A tibble: 750 × 5
##    subj_id song_id category genre_i liking_ij
##      <int>   <int> <chr>      <dbl>     <dbl>
##  1      11       1 pop            0      43.8
##  2      11       2 pop            0      50.3
##  3      11       3 pop            0      49.2
##  4      11       4 pop            0      38.7
##  5      11       5 pop            0      66.0
##  6      11       6 pop            0      51.1
##  7      11       7 pop            0      49.7
##  8      11       8 pop            0      38.5
##  9      11       9 pop            0      35.7
## 10      11      10 pop            0      48.8
## # ℹ 740 more rows
…
If we call parameter_search() it will return a single replication of
simulations for each combination of parameter values in pgrid.

parameter_search()

## # A tibble: 420 × 8
##    effect   group    term           estimate std.error statistic    df   p.value
##    <chr>    <chr>    <chr>             <dbl>     <dbl>     <dbl> <dbl>     <dbl>
##  1 fixed    <NA>     (Intercept)      58.3        2.97    19.7    10.4  1.42e- 9
##  2 fixed    <NA>     genre_i          -0.383      1.98    -0.194  12.9  8.49e- 1
##  3 ran_pars song_id  sd__(Intercep…    2.62      NA       NA      NA   NA       
##  4 ran_pars subj_id  sd__(Intercep…    8.58      NA       NA      NA   NA       
##  5 ran_pars subj_id  cor__(Interce…   -0.708     NA       NA      NA   NA       
##  6 ran_pars subj_id  sd__genre_i       3.24      NA       NA      NA   NA       
##  7 ran_pars Residual sd__Observati…    8.62      NA       NA      NA   NA       
##  8 fixed    <NA>     (Intercept)      62.8        2.15    29.1    14.6  2.36e-14
##  9 fixed    <NA>     genre_i           1.75       2.13     0.820  16.8  4.24e- 1
## 10 ran_pars song_id  sd__(Intercep…    3.52      NA       NA      NA   NA       
## # ℹ 410 more rows
…
